{
  "log": {
    "_recordingName": "AuthorSearch",
    "creator": {
      "comment": "persister:fs",
      "name": "Polly.JS",
      "version": "1.1.0"
    },
    "entries": [
      {
        "_id": "64706b40a2066c7875f7049ad2ed7014",
        "_order": 0,
        "cache": {},
        "request": {
          "bodySize": 0,
          "cookies": [],
          "headers": [
            {
              "name": "accept",
              "value": "application/vnd+inspire.record.ui+json"
            },
            {
              "name": "x-devtools-emulate-network-conditions-client-id",
              "value": "22501CEFE6294B48A636D5F634C1A99F"
            },
            {
              "name": "user-agent",
              "value": "Mozilla/5.0 (X11; Linux x86_64) AppleWebKit/537.36 (KHTML, like Gecko) HeadlessChrome/67.0.3391.0 Safari/537.36"
            },
            {
              "name": "referer",
              "value": "http://localhost:8080/authors?q="
            }
          ],
          "headersSize": 383,
          "httpVersion": "HTTP/1.1",
          "method": "GET",
          "queryString": [
            {
              "name": "sort",
              "value": "mostrecent"
            },
            {
              "name": "size",
              "value": "25"
            },
            {
              "name": "page",
              "value": "1"
            },
            {
              "name": "q",
              "value": ""
            }
          ],
          "url": "http://localhost:8080/api/authors?sort=mostrecent&size=25&page=1&q="
        },
        "response": {
          "bodySize": 23476,
          "content": {
            "mimeType": "application/json",
            "size": 23476,
            "text": "{\"aggregations\":{},\"hits\":{\"hits\":[{\"created\":\"2013-10-16T00:00:00+00:00\",\"id\":1259903,\"links\":{},\"metadata\":{\"$schema\":\"https://qa.inspirebeta.net/schemas/records/authors.json\",\"_collections\":[\"Authors\"],\"arxiv_categories\":[\"astro-ph.HE\"],\"author_suggest\":{\"input\":[\"Y. Yoneda\",\"Yoneda, Y.\"]},\"control_number\":1259903,\"deleted\":false,\"ids\":[{\"schema\":\"INSPIRE ID\",\"value\":\"INSPIRE-00421682\"},{\"schema\":\"INSPIRE BAI\",\"value\":\"Y.Yoneda.1\"}],\"legacy_creation_date\":\"2013-10-16\",\"legacy_version\":\"20150923151042.0\",\"name\":{\"preferred_name\":\"Y. Yoneda\",\"value\":\"Yoneda, Y.\"},\"positions\":[{\"curated_relation\":true,\"current\":true,\"institution\":\"Osaka City U.\",\"record\":{\"$ref\":\"https://qa.inspirebeta.net/api/institutions/903103\"}}],\"status\":\"active\",\"stub\":false},\"updated\":\"2019-07-01T13:55:22.755285+00:00\"},{\"created\":\"2015-01-29T00:00:00+00:00\",\"id\":1341934,\"links\":{},\"metadata\":{\"$schema\":\"https://qa.inspirebeta.net/schemas/records/authors.json\",\"_collections\":[\"Authors\"],\"acquisition_source\":{\"datetime\":\"2018-12-17T09:32:50.038980\",\"email\":\"julian.garcia.pardinas@cern.ch\",\"method\":\"submitter\",\"orcid\":\"0000-0003-2316-8829\",\"submission_number\":\"1371169\"},\"author_suggest\":{\"input\":[\"Juli\\u00e1n Garc\\u00eda Pardi\\u00f1as\",\"Pardi\\u00f1as, Juli\\u00e1n Garc\\u00eda\",\"Pardinas, Julian Garcia\",\"Garc\\u00eda Pardi\\u00f1as, Juli\\u00e1n\"]},\"control_number\":1341934,\"deleted\":false,\"email_addresses\":[{\"current\":true,\"value\":\"julian.garcia.pardinas@cern.ch\"}],\"ids\":[{\"schema\":\"INSPIRE ID\",\"value\":\"INSPIRE-00452833\"},{\"schema\":\"INSPIRE BAI\",\"value\":\"J.Garcia.Pardinas.1\"},{\"schema\":\"CERN\",\"value\":\"CERN-754277\"},{\"schema\":\"ORCID\",\"value\":\"0000-0003-2316-8829\"}],\"legacy_creation_date\":\"2015-01-29\",\"legacy_version\":\"20190108184309.0\",\"name\":{\"name_variants\":[\"Pardi\\u00f1as, Juli\\u00e1n Garc\\u00eda\",\"Pardinas, Julian Garcia\"],\"preferred_name\":\"Juli\\u00e1n Garc\\u00eda Pardi\\u00f1as\",\"value\":\"Garc\\u00eda Pardi\\u00f1as, Juli\\u00e1n\"},\"positions\":[{\"curated_relation\":true,\"current\":true,\"institution\":\"Zurich U.\",\"rank\":\"POSTDOC\",\"record\":{\"$ref\":\"https://qa.inspirebeta.net/api/institutions/903370\"}},{\"curated_relation\":true,\"institution\":\"U. Santiago de Compostela\",\"rank\":\"PHD\",\"record\":{\"$ref\":\"https://qa.inspirebeta.net/api/institutions/1110755\"}}],\"project_membership\":[{\"curated_relation\":true,\"current\":false,\"name\":\"CERN-LHC-LHCB\",\"record\":{\"$ref\":\"https://qa.inspirebeta.net/api/experiments/1110643\"}}],\"status\":\"active\",\"stub\":false},\"updated\":\"2019-07-01T13:55:03.184879+00:00\"},{\"created\":\"2013-12-26T00:00:00+00:00\",\"id\":1274115,\"links\":{},\"metadata\":{\"$schema\":\"https://qa.inspirebeta.net/schemas/records/authors.json\",\"_collections\":[\"Authors\"],\"arxiv_categories\":[\"gr-qc\"],\"author_suggest\":{\"input\":[\"Lallan Yadav\",\"Yadav, Lallan\"]},\"control_number\":1274115,\"deleted\":false,\"legacy_creation_date\":\"2013-12-26\",\"legacy_version\":\"20140308094651.0\",\"name\":{\"preferred_name\":\"Lallan Yadav\",\"value\":\"Yadav, Lallan\"},\"positions\":[{\"curated_relation\":true,\"current\":true,\"institution\":\"Gorakhpur U.\",\"record\":{\"$ref\":\"https://qa.inspirebeta.net/api/institutions/903811\"}}],\"stub\":true},\"updated\":\"2019-07-01T13:55:46.497039+00:00\"},{\"created\":\"2013-10-17T00:00:00+00:00\",\"id\":1260520,\"links\":{},\"metadata\":{\"$schema\":\"https://qa.inspirebeta.net/schemas/records/authors.json\",\"_collections\":[\"Authors\"],\"arxiv_categories\":[\"hep-ex\"],\"author_suggest\":{\"input\":[\"Jiang Libo\",\"Libo, Jiang\"]},\"control_number\":1260520,\"deleted\":false,\"email_addresses\":[{\"current\":true,\"value\":\"JIANGL@mailbox.sc.edu\"}],\"ids\":[{\"schema\":\"INSPIRE ID\",\"value\":\"INSPIRE-00427867\"},{\"schema\":\"INSPIRE BAI\",\"value\":\"Jiang.Libo.1\"}],\"legacy_creation_date\":\"2013-10-17\",\"legacy_version\":\"20151130192900.0\",\"name\":{\"preferred_name\":\"Jiang Libo\",\"value\":\"Libo, Jiang\"},\"positions\":[{\"curated_relation\":true,\"current\":true,\"institution\":\"South Carolina U.\",\"rank\":\"PHD\",\"record\":{\"$ref\":\"https://qa.inspirebeta.net/api/institutions/903637\"}}],\"project_membership\":[{\"curated_relation\":true,\"current\":true,\"name\":\"DUNE\",\"record\":{\"$ref\":\"https://qa.inspirebeta.net/api/experiments/1346343\"}}],\"status\":\"active\",\"stub\":false},\"updated\":\"2019-07-01T13:55:16.999100+00:00\"},{\"created\":\"1991-03-19T00:00:00+00:00\",\"id\":994682,\"links\":{},\"metadata\":{\"$schema\":\"https://qa.inspirebeta.net/schemas/records/authors.json\",\"_collections\":[\"Authors\"],\"arxiv_categories\":[\"hep-ph\"],\"author_suggest\":{\"input\":[\"J.A. Oteo\",\"Oteo, J.A.\"]},\"control_number\":994682,\"deleted\":false,\"ids\":[{\"schema\":\"INSPIRE ID\",\"value\":\"INSPIRE-00566391\"},{\"schema\":\"INSPIRE BAI\",\"value\":\"J.A.Oteo.1\"},{\"schema\":\"SPIRES\",\"value\":\"HEPNAMES-143901\"}],\"legacy_creation_date\":\"1991-03-19\",\"legacy_version\":\"20160519233118.0\",\"name\":{\"preferred_name\":\"J.A. Oteo\",\"value\":\"Oteo, J.A.\"},\"positions\":[{\"curated_relation\":true,\"current\":true,\"institution\":\"Unlisted\",\"record\":{\"$ref\":\"https://qa.inspirebeta.net/api/institutions/910325\"}},{\"curated_relation\":true,\"institution\":\"Valencia U.\",\"record\":{\"$ref\":\"https://qa.inspirebeta.net/api/institutions/903319\"}},{\"curated_relation\":true,\"institution\":\"Balearic Islands U.\",\"record\":{\"$ref\":\"https://qa.inspirebeta.net/api/institutions/904799\"}}],\"status\":\"departed\",\"stub\":false},\"updated\":\"2019-07-01T13:55:10.605519+00:00\"},{\"created\":\"2013-04-09T00:00:00+00:00\",\"id\":1227706,\"links\":{},\"metadata\":{\"$schema\":\"https://qa.inspirebeta.net/schemas/records/authors.json\",\"_collections\":[\"Authors\"],\"acquisition_source\":{\"datetime\":\"2018-07-29T19:52:49.837261\",\"email\":\"maria.elena.stramaglia@cern.ch\",\"method\":\"submitter\",\"orcid\":\"0000-0002-5572-0019\",\"submission_number\":\"1148994\"},\"arxiv_categories\":[\"hep-ex\"],\"author_suggest\":{\"input\":[\"Maria Elena Stramaglia\",\"Stramaglia, Maria Elena\"]},\"control_number\":1227706,\"deleted\":false,\"email_addresses\":[{\"current\":true,\"value\":\"maria.elena.stramaglia@cern.ch\"}],\"ids\":[{\"schema\":\"INSPIRE ID\",\"value\":\"INSPIRE-00372086\"},{\"schema\":\"CERN\",\"value\":\"CERN-745015\"},{\"schema\":\"INSPIRE BAI\",\"value\":\"M.E.Stramaglia.2\"},{\"schema\":\"ORCID\",\"value\":\"0000-0002-5572-0019\"},{\"schema\":\"SPIRES\",\"value\":\"HEPNAMES-1118226\"}],\"legacy_creation_date\":\"2013-04-09\",\"legacy_version\":\"20180817173127.0\",\"name\":{\"preferred_name\":\"Maria Elena Stramaglia\",\"value\":\"Stramaglia, Maria Elena\"},\"positions\":[{\"curated_relation\":true,\"current\":true,\"institution\":\"LPHE, Lausanne\",\"record\":{\"$ref\":\"https://qa.inspirebeta.net/api/institutions/903523\"},\"start_date\":\"2016\"},{\"curated_relation\":true,\"institution\":\"Bern U.\",\"record\":{\"$ref\":\"https://qa.inspirebeta.net/api/institutions/902668\"}}],\"project_membership\":[{\"curated_relation\":true,\"current\":false,\"name\":\"CERN-LHC-ATLAS\",\"record\":{\"$ref\":\"https://qa.inspirebeta.net/api/experiments/1108541\"}}],\"status\":\"active\",\"stub\":false},\"updated\":\"2019-07-01T13:54:48.933654+00:00\"},{\"created\":\"2013-07-24T00:00:00+00:00\",\"id\":1244218,\"links\":{},\"metadata\":{\"$schema\":\"https://qa.inspirebeta.net/schemas/records/authors.json\",\"_collections\":[\"Authors\"],\"author_suggest\":{\"input\":[\"S.E. Gayazov\",\"Gayazov, S.E.\"]},\"control_number\":1244218,\"deleted\":false,\"email_addresses\":[{\"current\":true,\"value\":\"s.e.gayazov@gmail.com\"}],\"ids\":[{\"schema\":\"INSPIRE ID\",\"value\":\"INSPIRE-00380498\"}],\"legacy_creation_date\":\"2013-07-24\",\"legacy_version\":\"20150923150900.0\",\"name\":{\"preferred_name\":\"S.E. Gayazov\",\"value\":\"Gayazov, S.E.\"},\"positions\":[{\"curated_relation\":true,\"current\":true,\"institution\":\"Novosibirsk, IYF\",\"record\":{\"$ref\":\"https://qa.inspirebeta.net/api/institutions/903088\"}}],\"project_membership\":[{\"curated_relation\":true,\"current\":false,\"name\":\"NOVOSIBIRSK-CMD-3\",\"record\":{\"$ref\":\"https://qa.inspirebeta.net/api/experiments/1108205\"}}],\"status\":\"active\",\"stub\":false},\"updated\":\"2019-07-01T13:54:54.166539+00:00\"},{\"created\":\"2017-02-07T00:00:00+00:00\",\"id\":1512242,\"links\":{},\"metadata\":{\"$schema\":\"https://qa.inspirebeta.net/schemas/records/authors.json\",\"_collections\":[\"Authors\"],\"arxiv_categories\":[\"astro-ph\"],\"author_suggest\":{\"input\":[\"Jingying Wang\",\"Wang, Jingying\"]},\"control_number\":1512242,\"deleted\":false,\"ids\":[{\"schema\":\"INSPIRE ID\",\"value\":\"INSPIRE-00636679\"},{\"schema\":\"INSPIRE BAI\",\"value\":\"Jing.Ying.Wang.1\"}],\"legacy_creation_date\":\"2017-02-07\",\"legacy_version\":\"20170207023912.0\",\"name\":{\"preferred_name\":\"Jingying Wang\",\"value\":\"Wang, Jingying\"},\"positions\":[{\"curated_relation\":true,\"current\":true,\"institution\":\"NAOC, Beijing\",\"record\":{\"$ref\":\"https://qa.inspirebeta.net/api/institutions/1208780\"}}],\"status\":\"active\",\"stub\":false},\"updated\":\"2019-07-01T13:54:50.349018+00:00\"},{\"created\":\"2000-08-16T00:00:00+00:00\",\"id\":996193,\"links\":{},\"metadata\":{\"$schema\":\"https://qa.inspirebeta.net/schemas/records/authors.json\",\"_collections\":[\"Authors\"],\"author_suggest\":{\"input\":[\"Mirei Nakamura\",\"\\u4e2d\\u6751, \\u7f8e\\u73b2\",\"Nakamura, Mirei\"]},\"control_number\":996193,\"deleted\":false,\"email_addresses\":[{\"current\":true,\"value\":\"mirei7654@yahoo.co.jp\"},{\"current\":false,\"hidden\":true,\"value\":\"mirei7654@yahoo.co.jp\"}],\"ids\":[{\"schema\":\"INSPIRE BAI\",\"value\":\"M.Nakamura.2\"},{\"schema\":\"SPIRES\",\"value\":\"HEPNAMES-160776\"}],\"legacy_creation_date\":\"2000-08-16\",\"legacy_version\":\"20171213111152.0\",\"name\":{\"native_names\":[\"\\u4e2d\\u6751, \\u7f8e\\u73b2\"],\"preferred_name\":\"Mirei Nakamura\",\"value\":\"Nakamura, Mirei\"},\"positions\":[{\"curated_relation\":true,\"end_date\":\"2001\",\"institution\":\"Tokyo U.\",\"rank\":\"MASTER\",\"record\":{\"$ref\":\"https://qa.inspirebeta.net/api/institutions/903273\"}}],\"status\":\"departed\",\"stub\":false},\"updated\":\"2019-07-01T13:55:20.877685+00:00\"},{\"created\":\"2008-03-31T00:00:00+00:00\",\"id\":1054002,\"links\":{},\"metadata\":{\"$schema\":\"https://qa.inspirebeta.net/schemas/records/authors.json\",\"_collections\":[\"Authors\"],\"author_suggest\":{\"input\":[\"Edgar F. Smith\",\"Smith, Edgar F.\"]},\"control_number\":1054002,\"deleted\":false,\"ids\":[{\"schema\":\"SPIRES\",\"value\":\"HEPNAMES-798720\"}],\"legacy_creation_date\":\"2008-03-31\",\"legacy_version\":\"20161012085844.0\",\"name\":{\"preferred_name\":\"Edgar F. Smith\",\"value\":\"Smith, Edgar F.\"},\"positions\":[{\"curated_relation\":true,\"institution\":\"Pennsylvania U.\",\"record\":{\"$ref\":\"https://qa.inspirebeta.net/api/institutions/903126\"}}],\"stub\":true},\"updated\":\"2019-07-01T13:55:47.595708+00:00\"},{\"created\":\"2014-02-17T00:00:00+00:00\",\"id\":1281468,\"links\":{},\"metadata\":{\"$schema\":\"https://qa.inspirebeta.net/schemas/records/authors.json\",\"_collections\":[\"Authors\"],\"arxiv_categories\":[\"hep-ex\"],\"author_suggest\":{\"input\":[\"Christopher Irslinger\",\"Irslinger, Christopher\"]},\"control_number\":1281468,\"deleted\":false,\"email_addresses\":[{\"current\":true,\"value\":\"cmi34@rutgers.edu\"}],\"legacy_creation_date\":\"2014-02-17\",\"legacy_version\":\"20150923151427.0\",\"name\":{\"preferred_name\":\"Christopher Irslinger\",\"value\":\"Irslinger, Christopher\"},\"positions\":[{\"curated_relation\":true,\"current\":true,\"institution\":\"Rutgers U., Piscataway\",\"record\":{\"$ref\":\"https://qa.inspirebeta.net/api/institutions/903404\"}}],\"status\":\"active\",\"stub\":false},\"updated\":\"2019-07-01T13:55:54.793091+00:00\"},{\"created\":\"2013-10-16T00:00:00+00:00\",\"id\":1259223,\"links\":{},\"metadata\":{\"$schema\":\"https://qa.inspirebeta.net/schemas/records/authors.json\",\"_collections\":[\"Authors\"],\"arxiv_categories\":[\"hep-ex\"],\"author_suggest\":{\"input\":[\"E. Neugebauer\",\"Neugebauer, E.\"]},\"control_number\":1259223,\"deleted\":false,\"ids\":[{\"schema\":\"INSPIRE BAI\",\"value\":\"E.Neugebauer.1\"}],\"legacy_creation_date\":\"2013-10-16\",\"legacy_version\":\"20151015174320.0\",\"name\":{\"preferred_name\":\"E. Neugebauer\",\"value\":\"Neugebauer, E.\"},\"positions\":[{\"curated_relation\":true,\"current\":true,\"institution\":\"Siegen U.\",\"record\":{\"$ref\":\"https://qa.inspirebeta.net/api/institutions/903203\"}}],\"project_membership\":[{\"curated_relation\":true,\"current\":true,\"name\":\"CERN-LEP-ALEPH\",\"record\":{\"$ref\":\"https://qa.inspirebeta.net/api/experiments/1109311\"}},{\"curated_relation\":true,\"current\":true,\"name\":\"CERN-LEP-DELPHI\",\"record\":{\"$ref\":\"https://qa.inspirebeta.net/api/experiments/1109312\"}},{\"curated_relation\":true,\"current\":true,\"name\":\"CERN-LEP-L3\",\"record\":{\"$ref\":\"https://qa.inspirebeta.net/api/experiments/1109313\"}}],\"status\":\"active\",\"stub\":false},\"updated\":\"2019-07-01T13:55:00.891738+00:00\"},{\"created\":\"1996-06-15T00:00:00+00:00\",\"id\":999756,\"links\":{},\"metadata\":{\"$schema\":\"https://qa.inspirebeta.net/schemas/records/authors.json\",\"_collections\":[\"Authors\"],\"advisors\":[{\"degree_type\":\"other\",\"ids\":[{\"schema\":\"INSPIRE ID\",\"value\":\"INSPIRE-00213672\"}],\"name\":\"Dris, Manolis\"}],\"arxiv_categories\":[\"hep-ex\"],\"author_suggest\":{\"input\":[\"Loukas Dimitris\",\"Dimitris, Loukas\"]},\"control_number\":999756,\"deleted\":false,\"email_addresses\":[{\"current\":false,\"hidden\":true,\"value\":\"loukas@inp.demokritos.gr\"},{\"current\":true,\"value\":\"loukas@inp.demokritos.gr\"}],\"ids\":[{\"schema\":\"SPIRES\",\"value\":\"HEPNAMES-201138\"},{\"schema\":\"INSPIRE ID\",\"value\":\"INSPIRE-00102768\"}],\"legacy_creation_date\":\"1996-06-15\",\"legacy_version\":\"20161012080819.0\",\"name\":{\"preferred_name\":\"Loukas Dimitris\",\"value\":\"Dimitris, Loukas\"},\"positions\":[{\"curated_relation\":true,\"current\":true,\"institution\":\"Democritos Nucl. Res. Ctr.\",\"record\":{\"$ref\":\"https://qa.inspirebeta.net/api/institutions/902768\"}},{\"curated_relation\":true,\"end_date\":\"1987\",\"institution\":\"Natl. Tech. U., Athens\",\"rank\":\"PHD\",\"record\":{\"$ref\":\"https://qa.inspirebeta.net/api/institutions/903697\"}},{\"curated_relation\":true,\"institution\":\"Athens U.\",\"rank\":\"UNDERGRADUATE\",\"record\":{\"$ref\":\"https://qa.inspirebeta.net/api/institutions/902653\"}}],\"status\":\"active\",\"stub\":false,\"urls\":[{\"value\":\"http://www.inp.demokritos.gr/~loukasd/\"}]},\"updated\":\"2019-07-01T13:54:55.499461+00:00\"},{\"created\":\"2013-10-16T00:00:00+00:00\",\"id\":1259018,\"links\":{},\"metadata\":{\"$schema\":\"https://qa.inspirebeta.net/schemas/records/authors.json\",\"_collections\":[\"Authors\"],\"arxiv_categories\":[\"hep-ex\"],\"author_suggest\":{\"input\":[\"J. Mirijanian\",\"Mirijanian, J.\"]},\"control_number\":1259018,\"deleted\":false,\"legacy_creation_date\":\"2013-10-16\",\"legacy_version\":\"20141023214448.0\",\"name\":{\"preferred_name\":\"J. Mirijanian\",\"value\":\"Mirijanian, J.\"},\"positions\":[{\"curated_relation\":true,\"current\":true,\"institution\":\"Northrop Grumman, Woodland Hills\",\"record\":{\"$ref\":\"https://qa.inspirebeta.net/api/institutions/1253275\"}}],\"status\":\"active\",\"stub\":true},\"updated\":\"2019-07-01T13:55:16.230769+00:00\"},{\"created\":\"2017-02-09T00:00:00+00:00\",\"id\":1512638,\"links\":{},\"metadata\":{\"$schema\":\"https://qa.inspirebeta.net/schemas/records/authors.json\",\"_collections\":[\"Authors\"],\"author_suggest\":{\"input\":[\"Ya-Bin Wang\",\"Wang, Ya-Bin\"]},\"control_number\":1512638,\"deleted\":false,\"ids\":[{\"schema\":\"INSPIRE ID\",\"value\":\"INSPIRE-00637040\"},{\"schema\":\"INSPIRE BAI\",\"value\":\"Ya.Bin.Wang.1\"}],\"legacy_creation_date\":\"2017-02-09\",\"legacy_version\":\"20170209115648.0\",\"name\":{\"preferred_name\":\"Ya-Bin Wang\",\"value\":\"Wang, Ya-Bin\"},\"positions\":[{\"curated_relation\":true,\"institution\":\"Henan Normal U.\",\"record\":{\"$ref\":\"https://qa.inspirebeta.net/api/institutions/904857\"}}],\"stub\":false},\"updated\":\"2019-07-01T13:55:20.475879+00:00\"},{\"created\":\"2006-09-25T00:00:00+00:00\",\"id\":1040106,\"links\":{},\"metadata\":{\"$schema\":\"https://qa.inspirebeta.net/schemas/records/authors.json\",\"_collections\":[\"Authors\"],\"arxiv_categories\":[\"astro-ph\"],\"author_suggest\":{\"input\":[\"Sun Kwok\",\"Kwok, Sun\"]},\"control_number\":1040106,\"deleted\":false,\"ids\":[{\"schema\":\"INSPIRE ID\",\"value\":\"INSPIRE-00466966\"},{\"schema\":\"INSPIRE BAI\",\"value\":\"Sun.Kwok.1\"},{\"schema\":\"SPIRES\",\"value\":\"HEPNAMES-645010\"}],\"legacy_creation_date\":\"2006-09-25\",\"legacy_version\":\"20160513090852.0\",\"name\":{\"preferred_name\":\"Sun Kwok\",\"value\":\"Kwok, Sun\"},\"positions\":[{\"curated_relation\":true,\"current\":true,\"institution\":\"Hong Kong U.\",\"record\":{\"$ref\":\"https://qa.inspirebeta.net/api/institutions/908370\"}}],\"status\":\"active\",\"stub\":false},\"updated\":\"2019-07-01T13:55:11.074005+00:00\"},{\"created\":\"1996-06-20T00:00:00+00:00\",\"id\":989417,\"links\":{},\"metadata\":{\"$schema\":\"https://qa.inspirebeta.net/schemas/records/authors.json\",\"_collections\":[\"Authors\"],\"arxiv_categories\":[\"hep-ex\"],\"author_suggest\":{\"input\":[\"Mirka Seinera-Buffo\",\"Seinera-Buffo, Mirka\"]},\"control_number\":989417,\"deleted\":false,\"ids\":[{\"schema\":\"SPIRES\",\"value\":\"HEPNAMES-84794\"}],\"legacy_creation_date\":\"1996-06-20\",\"legacy_version\":\"20171223022546.0\",\"name\":{\"preferred_name\":\"Mirka Seinera-Buffo\",\"value\":\"Seinera-Buffo, Mirka\"},\"positions\":[{\"curated_relation\":true,\"current\":true,\"institution\":\"CERN\",\"record\":{\"$ref\":\"https://qa.inspirebeta.net/api/institutions/902725\"}}],\"stub\":false,\"urls\":[{\"value\":\"https://phonebook.cern.ch/foundpub/Phonebook/index.html?search=Seinera-Buffo\"}]},\"updated\":\"2019-07-01T13:54:51.358100+00:00\"},{\"created\":\"2013-10-16T00:00:00+00:00\",\"id\":1259797,\"links\":{},\"metadata\":{\"$schema\":\"https://qa.inspirebeta.net/schemas/records/authors.json\",\"_collections\":[\"Authors\"],\"arxiv_categories\":[\"astro-ph.SR\"],\"author_suggest\":{\"input\":[\"R. Bucik\",\"Bucik, R.\"]},\"control_number\":1259797,\"deleted\":false,\"legacy_creation_date\":\"2013-10-16\",\"legacy_version\":\"20140308092137.0\",\"name\":{\"preferred_name\":\"R. Bucik\",\"value\":\"Bucik, R.\"},\"positions\":[{\"curated_relation\":true,\"current\":true,\"institution\":\"Lindau, Max Planck Inst.\",\"record\":{\"$ref\":\"https://qa.inspirebeta.net/api/institutions/904507\"}}],\"status\":\"active\",\"stub\":true},\"updated\":\"2019-07-01T13:54:50.150534+00:00\"},{\"created\":\"2006-04-21T00:00:00+00:00\",\"id\":1026877,\"links\":{},\"metadata\":{\"$schema\":\"https://qa.inspirebeta.net/schemas/records/authors.json\",\"_collections\":[\"Authors\"],\"arxiv_categories\":[\"astro-ph\"],\"author_suggest\":{\"input\":[\"Raghvendra Sahai\",\"Sahai, Raghvendra\"]},\"control_number\":1026877,\"deleted\":false,\"ids\":[{\"schema\":\"SPIRES\",\"value\":\"HEPNAMES-504041\"}],\"legacy_creation_date\":\"2006-04-21\",\"legacy_version\":\"20161012082706.0\",\"name\":{\"preferred_name\":\"Raghvendra Sahai\",\"value\":\"Sahai, Raghvendra\"},\"positions\":[{\"curated_relation\":true,\"current\":true,\"institution\":\"Caltech, JPL\",\"record\":{\"$ref\":\"https://qa.inspirebeta.net/api/institutions/903951\"}}],\"status\":\"active\",\"stub\":true},\"updated\":\"2019-07-01T13:54:51.025972+00:00\"},{\"created\":\"2013-12-18T00:00:00+00:00\",\"id\":1271945,\"links\":{},\"metadata\":{\"$schema\":\"https://qa.inspirebeta.net/schemas/records/authors.json\",\"_collections\":[\"Authors\"],\"arxiv_categories\":[\"gr-qc\"],\"author_suggest\":{\"input\":[\"Sophonie Blaise Tchapnda\",\"Tchapnda, Sophonie Blaise\"]},\"control_number\":1271945,\"deleted\":false,\"ids\":[{\"schema\":\"INSPIRE BAI\",\"value\":\"S.B.Tchapnda.1\"}],\"legacy_creation_date\":\"2013-12-18\",\"legacy_version\":\"20151015173343.0\",\"name\":{\"preferred_name\":\"Sophonie Blaise Tchapnda\",\"value\":\"Tchapnda, Sophonie Blaise\"},\"positions\":[{\"curated_relation\":true,\"end_date\":\"2004\",\"institution\":\"Berlin, Tech. U.\",\"rank\":\"PHD\",\"record\":{\"$ref\":\"https://qa.inspirebeta.net/api/institutions/903444\"}}],\"stub\":false},\"updated\":\"2019-07-01T13:55:54.686200+00:00\"},{\"created\":\"2014-01-16T00:00:00+00:00\",\"id\":1277678,\"links\":{},\"metadata\":{\"$schema\":\"https://qa.inspirebeta.net/schemas/records/authors.json\",\"_collections\":[\"Authors\"],\"arxiv_categories\":[\"gr-qc\"],\"author_suggest\":{\"input\":[\"Juan Calder\\u00f3n Bustillo\",\"Calder\\u00f3n Bustillo, Juan\"]},\"control_number\":1277678,\"deleted\":false,\"email_addresses\":[{\"current\":true,\"hidden\":true,\"value\":\"juan.calderon.bustillo@gmail.com\"}],\"ids\":[{\"schema\":\"INSPIRE ID\",\"value\":\"INSPIRE-00544290\"},{\"schema\":\"INSPIRE BAI\",\"value\":\"J.Calderon.Bustillo.1\"}],\"legacy_creation_date\":\"2014-01-16\",\"legacy_version\":\"20160104173620.0\",\"name\":{\"preferred_name\":\"Juan Calder\\u00f3n Bustillo\",\"value\":\"Calder\\u00f3n Bustillo, Juan\"},\"positions\":[{\"curated_relation\":true,\"current\":true,\"institution\":\"Balearic Islands U.\",\"record\":{\"$ref\":\"https://qa.inspirebeta.net/api/institutions/904799\"}}],\"project_membership\":[{\"curated_relation\":true,\"current\":false,\"name\":\"LIGO\",\"record\":{\"$ref\":\"https://qa.inspirebeta.net/api/experiments/1110623\"}}],\"stub\":false},\"updated\":\"2019-07-01T13:56:04.736013+00:00\"},{\"created\":\"2014-01-16T00:00:00+00:00\",\"id\":1277685,\"links\":{},\"metadata\":{\"$schema\":\"https://qa.inspirebeta.net/schemas/records/authors.json\",\"_collections\":[\"Authors\"],\"arxiv_categories\":[\"gr-qc\"],\"author_suggest\":{\"input\":[\"F. Clara\",\"Clara, F.\"]},\"control_number\":1277685,\"deleted\":false,\"legacy_creation_date\":\"2014-01-16\",\"legacy_version\":\"20140308094856.0\",\"name\":{\"preferred_name\":\"F. Clara\",\"value\":\"Clara, F.\"},\"stub\":true},\"updated\":\"2019-07-01T13:56:04.890013+00:00\"},{\"created\":\"2000-08-16T00:00:00+00:00\",\"id\":1005923,\"links\":{},\"metadata\":{\"$schema\":\"https://qa.inspirebeta.net/schemas/records/authors.json\",\"_collections\":[\"Authors\"],\"arxiv_categories\":[\"hep-th\"],\"author_suggest\":{\"input\":[\"Takayuki Hirayama\",\"Hirayama, Takayuki\"]},\"control_number\":1005923,\"deleted\":false,\"ids\":[{\"schema\":\"ARXIV\",\"value\":\"hirayama_t_1\"},{\"schema\":\"INSPIRE BAI\",\"value\":\"T.Hirayama.1\"},{\"schema\":\"ORCID\",\"value\":\"0000-0002-4118-2408\"},{\"schema\":\"SPIRES\",\"value\":\"HEPNAMES-270482\"}],\"legacy_creation_date\":\"2000-08-16\",\"legacy_version\":\"20171223022218.0\",\"name\":{\"preferred_name\":\"Takayuki Hirayama\",\"value\":\"Hirayama, Takayuki\"},\"positions\":[{\"curated_relation\":true,\"current\":true,\"institution\":\"KEK, Tsukuba\",\"record\":{\"$ref\":\"https://qa.inspirebeta.net/api/institutions/902916\"}},{\"curated_relation\":true,\"end_date\":\"2000\",\"institution\":\"Kyoto U.\",\"rank\":\"PHD\",\"record\":{\"$ref\":\"https://qa.inspirebeta.net/api/institutions/902941\"}},{\"curated_relation\":true,\"institution\":\"Kyoto U.\",\"rank\":\"UNDERGRADUATE\",\"record\":{\"$ref\":\"https://qa.inspirebeta.net/api/institutions/902941\"}}],\"status\":\"active\",\"stub\":false,\"urls\":[{\"value\":\"http://www2.yukawa.kyoto-u.ac.jp/~hirayama/\"}]},\"updated\":\"2019-07-01T13:56:23.825530+00:00\"},{\"created\":\"2013-12-26T00:00:00+00:00\",\"id\":1274228,\"links\":{},\"metadata\":{\"$schema\":\"https://qa.inspirebeta.net/schemas/records/authors.json\",\"_collections\":[\"Authors\"],\"arxiv_categories\":[\"hep-ph\"],\"author_suggest\":{\"input\":[\"Li-Na Kou\",\"Kou, Li-Na\"]},\"control_number\":1274228,\"deleted\":false,\"legacy_creation_date\":\"2013-12-26\",\"legacy_version\":\"20140308094658.0\",\"name\":{\"preferred_name\":\"Li-Na Kou\",\"value\":\"Kou, Li-Na\"},\"positions\":[{\"curated_relation\":true,\"current\":true,\"institution\":\"Dalian U. Tech.\",\"record\":{\"$ref\":\"https://qa.inspirebeta.net/api/institutions/905224\"}}],\"stub\":true},\"updated\":\"2019-07-01T13:55:57.172825+00:00\"},{\"created\":\"2013-08-06T00:00:00+00:00\",\"id\":1246481,\"links\":{},\"metadata\":{\"$schema\":\"https://qa.inspirebeta.net/schemas/records/authors.json\",\"_collections\":[\"Authors\"],\"arxiv_categories\":[\"hep-ex\"],\"author_suggest\":{\"input\":[\"Luke Vinton\",\"Vinton, Luke\"]},\"control_number\":1246481,\"deleted\":false,\"email_addresses\":[{\"current\":true,\"value\":\"lv60@sussex.ac.uk\"},{\"current\":false,\"value\":\"l.vinton@sussex.ac.uk\"},{\"current\":true,\"hidden\":true,\"value\":\"luke.vinton.lv@gmail.com\"}],\"ids\":[{\"schema\":\"INSPIRE ID\",\"value\":\"INSPIRE-00476572\"},{\"schema\":\"INSPIRE BAI\",\"value\":\"L.Vinton.1\"},{\"schema\":\"ORCID\",\"value\":\"0000-0002-0516-3816\"}],\"legacy_creation_date\":\"2013-08-06\",\"legacy_version\":\"20170516230738.0\",\"name\":{\"preferred_name\":\"Luke Vinton\",\"value\":\"Vinton, Luke\"},\"positions\":[{\"curated_relation\":true,\"current\":true,\"institution\":\"Sussex U.\",\"record\":{\"$ref\":\"https://qa.inspirebeta.net/api/institutions/903239\"}}],\"project_membership\":[{\"curated_relation\":true,\"current\":false,\"name\":\"FNAL-E-0929\",\"record\":{\"$ref\":\"https://qa.inspirebeta.net/api/experiments/1108441\"}}],\"status\":\"active\",\"stub\":false},\"updated\":\"2019-07-01T13:54:48.313371+00:00\"}],\"total\":124462},\"links\":{\"next\":\"https://qa.inspirebeta.net/api/authors/?page=2&q=&size=25\",\"self\":\"https://qa.inspirebeta.net/api/authors/?page=1&q=&size=25\"}}"
          },
          "cookies": [],
          "headers": [
            {
              "name": "date",
              "value": "Mon, 15 Jul 2019 14:25:07 GMT"
            },
            {
              "name": "server",
              "value": "gunicorn/19.9.0"
            },
            {
              "name": "x-powered-by",
              "value": "Express"
            },
            {
              "name": "content-type",
              "value": "application/json"
            },
            {
              "name": "access-control-allow-origin",
              "value": "*"
            },
            {
              "name": "access-control-expose-headers",
              "value": "Content-Type, ETag, Link, X-RateLimit-Limit, X-RateLimit-Remaining, X-RateLimit-Reset"
            },
            {
              "name": "connection",
              "value": "close"
            },
            {
              "name": "link",
              "value": "<https://qa.inspirebeta.net/api/authors/?page=1&q=&size=25>; rel=\"self\", <https://qa.inspirebeta.net/api/authors/?page=2&q=&size=25>; rel=\"next\""
            },
            {
              "name": "content-length",
              "value": "23476"
            }
          ],
          "headersSize": 463,
          "httpVersion": "HTTP/1.1",
          "redirectURL": "",
          "status": 200,
          "statusText": "OK"
        },
        "startedDateTime": "2019-07-15T14:25:58.334Z",
        "time": 290,
        "timings": {
          "blocked": -1,
          "connect": -1,
          "dns": -1,
          "receive": 0,
          "send": 0,
          "ssl": -1,
          "wait": 290
        }
      }
    ],
    "pages": [],
    "version": "1.2"
  }
}
